…
***

## APPENDIX: Upper/Lower limits


```r
#std.par <- readRDS("data/01-parametr.rds")
std.par
```

```
## # A tibble: 28 x 5
##    Plate     c_Pfal     c_Pviv    d_Pfal    d_Pviv
##    <chr>      <dbl>      <dbl>     <dbl>     <dbl>
##  1   N11 0.04171865 0.03961389 1.3869566 1.4301670
##  2   N12 0.05180474 0.05755776 1.4290674 1.3541624
##  3   N15 0.06997395 0.04365285 0.8869461 1.0655199
##  4   N16 0.05079147 0.04895392 0.8461171 0.7496968
##  5   N17 0.04574432 0.04563150 1.1949685 0.8686462
##  6   N18 0.04204531 0.04150384 0.6470736 0.9601214
##  7   N20 0.04404236 0.04258166 0.8025537 0.8272903
##  8   N21 0.04361240 0.04580946 0.6655774 0.7539252
##  9   N22 0.05240877 0.05040193 0.9719488 0.8719549
## 10   N23 0.04280990 0.04158864 0.8908384 0.9028253
## # ... with 18 more rows
```
…
- **67 samples** have OD below the lower limit:


```r
# below lower limit
std.out %>% 
  filter(out.low==T)
```

```
## # A tibble: 67 x 10
##    Plate      ID Ab.unit mean.OD Specie par.Specie          c         d out.low out.upp
##    <chr>  <fctr>   <dbl>   <dbl> <fctr>      <chr>      <dbl>     <dbl>   <lgl>   <lgl>
##  1   N12 ZG023-5     NaN  0.0575   Pviv       Pviv 0.05755776 1.3541624    TRUE   FALSE
##  2   N12 ZG162-4     NaN  0.0495   Pfal       Pfal 0.05180474 1.4290674    TRUE   FALSE
##  3   N12 ZG177-4     NaN  0.0505   Pfal       Pfal 0.05180474 1.4290674    TRUE   FALSE
##  4   N12 ZG178-6     NaN  0.0500   Pfal       Pfal 0.05180474 1.4290674    TRUE   FALSE
##  5   N15 ZG031-5     NaN  0.0665   Pfal       Pfal 0.06997395 0.8869461    TRUE   FALSE
##  6   N15 ZG031-6     NaN  0.0685   Pfal       Pfal 0.06997395 0.8869461    TRUE   FALSE
##  7   N15 ZG045-4     NaN  0.0670   Pfal       Pfal 0.06997395 0.8869461    TRUE   FALSE
##  8   N15 ZG047-3     NaN  0.0620   Pfal       Pfal 0.06997395 0.8869461    TRUE   FALSE
##  9   N15 ZG047-4     NaN  0.0675   Pfal       Pfal 0.06997395 0.8869461    TRUE   FALSE
## 10   N15 ZG183-2     NaN  0.0695   Pfal       Pfal 0.06997395 0.8869461    TRUE   FALSE
## # ... with 57 more rows
```
…
- **`ndias_drogas_tratamiento_03`** is a inconsistent variable
- remove variables containing **`_tratamiento_03`** due to full of NA's and the shown inconsistence.



```r
unap6a %>% 
  group_by(drogas_tratamiento_03, ndias_drogas_tratamiento_03) %>% dplyr::count(sort = T)
```

```
## Source: local data frame [30 x 3]
## Groups: drogas_tratamiento_03 [4]
## 
## # A tibble: 30 x 3
##    drogas_tratamiento_03 ndias_drogas_tratamiento_03     n
##                    <chr>                       <dbl> <int>
##  1                  <NA>                           0   932
##  2            primaquina                           0     2
##  3                  <NA>                          NA     2
##  4            artesunato                           3     1
##  5            primaquina                           1     1
##  6            Primaquina                           2     1
##  7                  <NA>                           3     1
##  8                  <NA>                           4     1
##  9                  <NA>                           5     1
## 10                  <NA>                           6     1
## # ... with 20 more rows
```
…
***

### sheet 2

```r
readxl::read_excel("data/UNAP-6-EPI-08feb2017.xlsx", sheet = 2)
```

```
## # A tibble: 89 x 2
##                    VARIABLE                                    `EXPLICACIÓN DE VARIABLE`
##                       <chr>                                                        <chr>
##  1                    anios                                                         años
##  2                   barrio                                                    comunidad
##  3          grupos_personas                        N° de familias que cocina en el hogar
##  4 electricidad_red_publica el poblador está conectado a la red pública de elecrtricidad
##  5                 ah_radio                                     Tiene radio, Si=1 y No=0
##  6            ah_television                                Tiene television, Si=1 y No=0
##  7               ah_estereo                                   Tiene estereo, Si=1 y No=0
##  8          ah_refrigerador                              Tiene refrigerador, Si=1 y No=0
##  9           ah_motocicleta                               Tiene motocicleta, Si=1 y No=0
## 10              ah_mototaxi                                  Tiene mototaxi, Si=1 y No=0
## # ... with 79 more rows
```


### sheet 3

```r
readxl::read_excel("data/UNAP-6-EPI-08feb2017.xlsx", sheet = 3)
```

```
## # A tibble: 93 x 2
##                    VARIABLE
##                       <chr>
##  1             estado_civil
##  2          nivel_educacion
##  3             tipo_trabajo
##  4        otro_tipo_trabajo
##  5                    anios
##  6                   barrio
##  7          grupos_personas
##  8 electricidad_red_publica
##  9                 ah_radio
## 10            ah_television
## # ... with 83 more rows, and 1 more variables: `EXPLICACIÓN DE VARIABLE` <chr>
```
…
